// Jest Snapshot v1, https://goo.gl/fbAQLP

exports[`BookingProvider should handles creating, reading, updating, and deleting bookings 1`] = `
{
  "asFragment": [Function],
  "baseElement": <body>
    <div>
      <div>
        <button
          data-testid="createButton"
        >
          Create Booking
        </button>
        <button
          data-testid="updateButton"
        >
          Update Booking
        </button>
        <button
          data-testid="deleteButton"
        >
          Delete Booking
        </button>
        <div
          data-testid="booking"
        />
        <div
          data-testid="bookingsCount"
        >
          0
        </div>
      </div>
    </div>
  </body>,
  "container": <div>
    <div>
      <button
        data-testid="createButton"
      >
        Create Booking
      </button>
      <button
        data-testid="updateButton"
      >
        Update Booking
      </button>
      <button
        data-testid="deleteButton"
      >
        Delete Booking
      </button>
      <div
        data-testid="booking"
      />
      <div
        data-testid="bookingsCount"
      >
        0
      </div>
    </div>
  </div>,
  "debug": [Function],
  "findAllByAltText": [Function],
  "findAllByDisplayValue": [Function],
  "findAllByLabelText": [Function],
  "findAllByPlaceholderText": [Function],
  "findAllByRole": [Function],
  "findAllByTestId": [Function],
  "findAllByText": [Function],
  "findAllByTitle": [Function],
  "findByAltText": [Function],
  "findByDisplayValue": [Function],
  "findByLabelText": [Function],
  "findByPlaceholderText": [Function],
  "findByRole": [Function],
  "findByTestId": [Function],
  "findByText": [Function],
  "findByTitle": [Function],
  "getAllByAltText": [Function],
  "getAllByDisplayValue": [Function],
  "getAllByLabelText": [Function],
  "getAllByPlaceholderText": [Function],
  "getAllByRole": [Function],
  "getAllByTestId": [Function],
  "getAllByText": [Function],
  "getAllByTitle": [Function],
  "getByAltText": [Function],
  "getByDisplayValue": [Function],
  "getByLabelText": [Function],
  "getByPlaceholderText": [Function],
  "getByRole": [Function],
  "getByTestId": [Function],
  "getByText": [Function],
  "getByTitle": [Function],
  "queryAllByAltText": [Function],
  "queryAllByDisplayValue": [Function],
  "queryAllByLabelText": [Function],
  "queryAllByPlaceholderText": [Function],
  "queryAllByRole": [Function],
  "queryAllByTestId": [Function],
  "queryAllByText": [Function],
  "queryAllByTitle": [Function],
  "queryByAltText": [Function],
  "queryByDisplayValue": [Function],
  "queryByLabelText": [Function],
  "queryByPlaceholderText": [Function],
  "queryByRole": [Function],
  "queryByTestId": [Function],
  "queryByText": [Function],
  "queryByTitle": [Function],
  "rerender": [Function],
  "unmount": [Function],
}
`;
